Parameterized Synchronous FIFO/simulation/modelsim/tb.vcd
$date
	Fri Jan 16 22:04:26 2026
$end
$version
	ModelSim Version 2020.1
$end
$timescale
	1ps
$end

$scope module tb $end
$var parameter 32 ! DEPTH $end
$var parameter 32 " DATA_WIDTH $end
$var reg 1 # clk $end
$var reg 1 $ rst_n $end
$var reg 1 % w_en $end
$var reg 1 & r_en $end
$var reg 8 ' data_in [7:0] $end
$var wire 1 ( data_out [7] $end
$var wire 1 ) data_out [6] $end
$var wire 1 * data_out [5] $end
$var wire 1 + data_out [4] $end
$var wire 1 , data_out [3] $end
$var wire 1 - data_out [2] $end
$var wire 1 . data_out [1] $end
$var wire 1 / data_out [0] $end
$var wire 1 0 full $end
$var wire 1 1 empty $end

$scope module dut $end
$var parameter 32 2 DEPTH $end
$var parameter 32 3 DATA_WIDTH $end
$var wire 1 4 clk $end
$var wire 1 5 rst_n $end
$var wire 1 6 w_en $end
$var wire 1 7 r_en $end
$var wire 1 8 data_in [7] $end
$var wire 1 9 data_in [6] $end
$var wire 1 : data_in [5] $end
$var wire 1 ; data_in [4] $end
$var wire 1 < data_in [3] $end
$var wire 1 = data_in [2] $end
$var wire 1 > data_in [1] $end
$var wire 1 ? data_in [0] $end
$var reg 8 @ data_out [7:0] $end
$var wire 1 0 full $end
$var wire 1 1 empty $end
$var reg 3 A w_ptr [2:0] $end
$var reg 3 B r_ptr [2:0] $end
$upscope $end
$upscope $end
$enddefinitions $end
#0
$dumpvars
0#
0$
0%
0&
b0 '
bx @
bx A
bx B
b1000 !
b1000 "
b1000 2
b1000 3
x/
x.
x-
x,
x+
x*
x)
x(
x0
x1
0?
0>
0=
0<
0;
0:
09
08
07
06
05
04
$end
#5000
1#
14
b0 A
b0 B
b0 @
11
00
0/
0.
0-
0,
0+
0*
0)
0(
#10000
0#
04
#15000
1#
14
#20000
1$
0#
15
04
#25000
1#
14
1%
b100100 '
16
1=
1:
#30000
0#
04
#35000
1#
14
b10000001 '
1?
0=
0:
18
b1 A
01
#40000
0#
04
#45000
1#
14
b1001 '
1<
08
b10 A
#50000
0#
04
#55000
1#
14
b1100011 '
1>
0<
1:
19
b11 A
#60000
0#
04
#65000
1#
14
b1101 '
0>
1=
1<
0:
09
b100 A
#70000
0#
04
#75000
1#
14
b10001101 '
18
b101 A
#80000
0#
04
#85000
1#
14
b1100101 '
0<
1:
19
08
b110 A
#90000
0#
04
#95000
1#
14
b10010 '
0?
1>
0=
1;
0:
09
b111 A
10
#100000
0#
04
#105000
1#
14
b10101010 '
0%
1<
0;
1:
18
06
#110000
0#
04
#115000
1#
14
1&
17
#120000
0#
04
#125000
1#
14
b100100 @
b1 B
1-
1*
00
#130000
0#
04
#135000
1#
14
b10000001 @
b10 B
1/
0-
0*
1(
#140000
0#
04
#145000
1#
14
b1001 @
b11 B
1,
0(
#150000
0#
04
#155000
1#
14
b1100011 @
b100 B
1.
0,
1*
1)
#160000
0#
04
#165000
1#
14
b1101 @
b101 B
0.
1-
1,
0*
0)
#170000
0#
04
#175000
1#
14
b10001101 @
b110 B
1(
#180000
0#
04
#185000
1#
14
b1100101 @
b111 B
0,
1*
1)
0(
11
#190000
0#
04
#195000
1#
14
#200000
0#
04
#205000
1#
14
1%
b1 '
16
1?
0>
0<
0:
08
#210000
0#
04
#215000
1#
14
b1101 '
1=
1<
b0 A
01
#220000
0#
04
#225000
1#
14
b1110110 '
0?
1>
0<
1;
1:
19
b1 A
b1 @
b0 B
0-
0*
0)
#230000
0#
04
#235000
1#
14
b111101 '
1?
0>
1<
09
b10 A
b1101 @
b1 B
1-
1,
#240000
0#
04
#245000
1#
14
b11101101 '
0;
19
18
b11 A
b1110110 @
b10 B
0/
1.
0,
1+
1*
1)
#250000
0#
04
#255000
1#
14
0%
b11000110 '
06
0?
1>
0<
0:
b100 A
b111101 @
b11 B
1/
0.
1,
0)
#260000
0#
04
#265000
1#
14
1%
0&
b11100101 '
16
07
1?
0>
1:
b11101101 @
b100 B
0+
1)
1(
11
#270000
0#
04
#275000
1#
14
b10001111 '
1>
1<
0:
09
b101 A
01
#280000
0#
04
#285000
1#
14
0%
b11101000 '
06
0?
0>
0=
1:
19
b110 A
#290000
0#
04
#295000
1#
14
1%
b10111101 '
16
1?
1=
1;
09
#300000
0#
04
#305000
1#
14
1&
b1100011 '
17
1>
0=
0<
0;
19
08
b111 A
#310000
0#
04
#315000
1#
14
0%
0&
b100000 '
06
07
0?
0>
09
b0 A
b11100101 @
b101 B
0,
#320000
0#
04
#325000
1#
14
1&
b10010110 '
17
1>
1=
1;
0:
18
#330000
0#
04
#335000
1#
14
1%
b1010011 '
16
1?
0=
19
08
b10001111 @
b110 B
1.
1,
0*
0)
#340000
0#
04
#345000
1#
14
b10 '
0?
0;
09
b1 A
b10111101 @
b111 B
0.
1+
1*
#350000
0#
04
#355000
1#
14
0%
b11001111 '
06
1?
1=
1<
19
18
b10 A
b1100011 @
b0 B
1.
0-
0,
0+
1)
0(
#360000
0#
04
#365000
1#
14
1%
0&
b11001010 '
16
07
0?
0=
b1010011 @
b1 B
1+
0*
#370000
0#
04
#375000
1#
14
0%
b10001010 '
06
09
b11 A
#380000
0#
04
#385000
1#
14
1%
b1111000 '
16
0>
1;
1:
19
08
#390000
0#
04
#395000
1#
14
1&
b10110110 '
17
1>
1=
0<
09
18
b100 A
#400000
0#
04
#405000
1#
14
0%
0&
b10111100 '
06
07
0>
1<
b101 A
b10 @
b10 B
0/
0+
0)
#410000
0#
04
#415000
1#
14
1&
b1110001 '
17
1?
0=
0<
19
08
#420000
0#
04
#425000
1#
14
1%
b111011 '
16
1>
1<
09
b11001010 @
b11 B
1,
1)
1(
#430000
0#
04
#435000
1#
14
0%
0&
b10101 '
06
07
0>
1=
0<
0:
b110 A
b1111000 @
b100 B
0.
1+
1*
0(
#440000
0#
04
#445000
1#
14
1%
1&
b1100010 '
16
17
0?
1>
0=
0;
1:
19
#450000
0#
04
#455000
1#
14
b111 A
b10110110 @
b101 B
1.
1-
0,
0)
1(
#460000
0#
04
#465000
1#
14
b0 A
b111011 @
b110 B
1/
0-
1,
0(
#470000
0#
04
#475000
1#
14
b1 A
b1100010 @
b111 B
0/
0,
0+
1)
#480000
0#
04
#485000
1#
14
b10 A
b0 B
